{"content":[{"id":517,"procId":"bd39faa9-efff-46f7-8842-74de8bb16bc1","assignee":1251,"assigneeRole":"NPP-EXPERT","beginDate":"2025-09-08T14:15:14.79728","endDate":null,"executionDate":"2025-09-10T22:00:00","name":"Оформление несоответствий","state":"COMPLETE","parentTaskId":515,"unndBlock":{"id":26,"unndPlant":{"id":8,"code":"ЛЕН","name":"Ленинградская АЭС","asutdCode":"BSP_LAES_ASUTD"},"code":"ЛЕН-1","name":"РБМК1000","type":"РБМК","commonName":"ЛЕН-1","unndOiaeCategoriesEntities":{"id":1,"name":"Ядерные установки"},"hibernateLazyInitializer":{}},"fnpDoc":null,"processName":"INCONS_MANAGEMENT","processNameRu":null,"createdBy":null,"userTaskType":"INCONS_CREATE_LIST"},{"id":518,"procId":"d04ce1e8-d14a-4737-a975-a7870b1a11d8","assignee":1251,"assigneeRole":"NPP-EXPERT","beginDate":"2025-09-08T14:15:54.943301","endDate":null,"executionDate":"2025-09-10T22:00:00","name":"Оформление несоответствий","state":"COMPLETE","parentTaskId":516,"unndBlock":{"id":26,"unndPlant":{"id":8,"code":"ЛЕН","name":"Ленинградская АЭС","asutdCode":"BSP_LAES_ASUTD"},"code":"ЛЕН-1","name":"РБМК1000","type":"РБМК","commonName":"ЛЕН-1","unndOiaeCategoriesEntities":{"id":1,"name":"Ядерные установки"},"hibernateLazyInitializer":{}},"fnpDoc":null,"processName":"INCONS_MANAGEMENT","processNameRu":null,"createdBy":null,"userTaskType":"INCONS_CREATE_LIST"},{"id":38,"procId":"46ebb4a8-3330-45bd-9cb8-ec89b91a06aa","assignee":1251,"assigneeRole":null,"beginDate":"2025-08-19T18:36:05.633964","endDate":null,"executionDate":null,"name":"Оформление несоответствий","state":"CANCELLED","parentTaskId":37,"unndBlock":null,"fnpDoc":null,"processName":"INCONS_MANAGEMENT","processNameRu":null,"createdBy":null,"userTaskType":"INCONS_CREATE_LIST"},{"id":43,"procId":"5d977369-79e4-44dd-b738-e7ed856582ee","assignee":1251,"assigneeRole":null,"beginDate":"2025-08-19T18:50:19.942552","endDate":null,"executionDate":null,"name":"Оформление несоответствий","state":"NEW","parentTaskId":42,"unndBlock":null,"fnpDoc":null,"processName":"INCONS_MANAGEMENT","processNameRu":null,"createdBy":null,"userTaskType":"INCONS_CREATE_LIST"},{"id":59,"procId":"7a054502-3b46-4e95-8e0f-15adc2918f6e","assignee":1772,"assigneeRole":null,"beginDate":"2025-08-20T17:26:18.758304","endDate":null,"executionDate":null,"name":"Оформление несоответствий","state":"NEW","parentTaskId":58,"unndBlock":null,"fnpDoc":null,"processName":"INCONS_MANAGEMENT","processNameRu":null,"createdBy":null,"userTaskType":"INCONS_CREATE_LIST"},{"id":66,"procId":"80ca2a93-99d5-4041-9ae8-4907e584c15d","assignee":1807,"assigneeRole":null,"beginDate":"2025-08-20T18:02:37.299514","endDate":null,"executionDate":null,"name":"Оформление несоответствий","state":"COMPLETE","parentTaskId":65,"unndBlock":null,"fnpDoc":null,"processName":"INCONS_MANAGEMENT","processNameRu":null,"createdBy":null,"userTaskType":"INCONS_CREATE_LIST"},{"id":48,"procId":"47232516-8fcc-4911-951f-e9035cdf9bae","assignee":1251,"assigneeRole":null,"beginDate":"2025-08-19T19:27:38.161522","endDate":null,"executionDate":null,"name":"Оформление несоответствий","state":"COMPLETE","parentTaskId":47,"unndBlock":null,"fnpDoc":null,"processName":"INCONS_MANAGEMENT","processNameRu":null,"createdBy":null,"userTaskType":"INCONS_CREATE_LIST"},{"id":521,"procId":"c56c7aef-5160-4c47-b690-a7876e673b13","assignee":1251,"assigneeRole":"NPP-EXPERT","beginDate":"2025-09-08T14:24:48.050141","endDate":null,"executionDate":"2025-09-11T22:00:00","name":"Оформление несоответствий","state":"COMPLETE","parentTaskId":520,"unndBlock":{"id":26,"unndPlant":{"id":8,"code":"ЛЕН","name":"Ленинградская АЭС","asutdCode":"BSP_LAES_ASUTD"},"code":"ЛЕН-1","name":"РБМК1000","type":"РБМК","commonName":"ЛЕН-1","unndOiaeCategoriesEntities":{"id":1,"name":"Ядерные установки"},"hibernateLazyInitializer":{}},"fnpDoc":null,"processName":"INCONS_MANAGEMENT","processNameRu":null,"createdBy":null,"userTaskType":"INCONS_CREATE_LIST"},{"id":668,"procId":"809c3469-d706-4c55-9fa5-72f9104f492a","assignee":1821,"assigneeRole":"NPP-EXPERT","beginDate":"2025-09-12T15:36:35.678867","endDate":null,"executionDate":"2025-09-22T21:00:00","name":"Оформление несоответствий","state":"NEW","parentTaskId":667,"unndBlock":{"id":27,"unndPlant":{"id":8,"code":"ЛЕН","name":"Ленинградская АЭС","asutdCode":"BSP_LAES_ASUTD"},"code":"ЛЕН-2","name":"РБМК1000","type":"РБМК","commonName":"ЛЕН-2","unndOiaeCategoriesEntities":{"id":1,"name":"Ядерные установки"},"hibernateLazyInitializer":{}},"fnpDoc":null,"processName":"INCONS_MANAGEMENT","processNameRu":null,"createdBy":null,"userTaskType":"INCONS_CREATE_LIST"},{"id":78,"procId":"295e60bf-3a0c-43f9-b4f4-02c78e2f0a6f","assignee":1807,"assigneeRole":null,"beginDate":"2025-08-21T09:14:26.552091","endDate":null,"executionDate":null,"name":"Оформление несоответствий","state":"COMPLETE","parentTaskId":77,"unndBlock":{"id":26,"unndPlant":{"id":8,"code":"ЛЕН","name":"Ленинградская АЭС","asutdCode":"BSP_LAES_ASUTD"},"code":"ЛЕН-1","name":"РБМК1000","type":"РБМК","commonName":"ЛЕН-1","unndOiaeCategoriesEntities":{"id":1,"name":"Ядерные установки"},"hibernateLazyInitializer":{}},"fnpDoc":null,"processName":"INCONS_MANAGEMENT","processNameRu":null,"createdBy":null,"userTaskType":"INCONS_CREATE_LIST"},{"id":537,"procId":"9dbff397-5d2d-4eb7-be71-4e079a4454d8","assignee":1251,"assigneeRole":"NPP-EXPERT","beginDate":"2025-09-08T18:21:03.781626","endDate":null,"executionDate":"2025-09-11T22:00:00","name":"Оформление несоответствий","state":"COMPLETE","parentTaskId":536,"unndBlock":{"id":26,"unndPlant":{"id":8,"code":"ЛЕН","name":"Ленинградская АЭС","asutdCode":"BSP_LAES_ASUTD"},"code":"ЛЕН-1","name":"РБМК1000","type":"РБМК","commonName":"ЛЕН-1","unndOiaeCategoriesEntities":{"id":1,"name":"Ядерные установки"},"hibernateLazyInitializer":{}},"fnpDoc":null,"processName":"INCONS_MANAGEMENT","processNameRu":null,"createdBy":null,"userTaskType":"INCONS_CREATE_LIST"},{"id":526,"procId":"e6060a6b-ef51-4c37-84fe-7e8e134283f7","assignee":1251,"assigneeRole":"NPP-EXPERT","beginDate":"2025-09-08T16:03:07.244834","endDate":null,"executionDate":"2025-09-12T22:00:00","name":"Оформление несоответствий","state":"COMPLETE","parentTaskId":525,"unndBlock":{"id":26,"unndPlant":{"id":8,"code":"ЛЕН","name":"Ленинградская АЭС","asutdCode":"BSP_LAES_ASUTD"},"code":"ЛЕН-1","name":"РБМК1000","type":"РБМК","commonName":"ЛЕН-1","unndOiaeCategoriesEntities":{"id":1,"name":"Ядерные установки"},"hibernateLazyInitializer":{}},"fnpDoc":null,"processName":"INCONS_MANAGEMENT","processNameRu":null,"createdBy":null,"userTaskType":"INCONS_CREATE_LIST"},{"id":573,"procId":"19d10367-6691-416e-9e77-afc1bafbc0d4","assignee":1251,"assigneeRole":"NPP-EXPERT","beginDate":"2025-09-10T17:43:20.642114","endDate":null,"executionDate":"2025-09-12T22:00:00","name":"Оформление несоответствий","state":"COMPLETE","parentTaskId":568,"unndBlock":{"id":26,"unndPlant":{"id":8,"code":"ЛЕН","name":"Ленинградская АЭС","asutdCode":"BSP_LAES_ASUTD"},"code":"ЛЕН-1","name":"РБМК1000","type":"РБМК","commonName":"ЛЕН-1","unndOiaeCategoriesEntities":{"id":1,"name":"Ядерные установки"},"hibernateLazyInitializer":{}},"fnpDoc":null,"processName":"INCONS_MANAGEMENT","processNameRu":null,"createdBy":null,"userTaskType":"INCONS_CREATE_LIST"},{"id":116,"procId":"0cfb8f69-4630-4f7a-aadd-a60080051cd2","assignee":1251,"assigneeRole":null,"beginDate":"2025-08-21T16:22:01.279156","endDate":null,"executionDate":null,"name":"Оформление несоответствий","state":"COMPLETE","parentTaskId":115,"unndBlock":{"id":109,"unndPlant":{"id":8,"code":"ЛЕН","name":"Ленинградская АЭС","asutdCode":"BSP_LAES_ASUTD"},"code":"ХОЯТ ЛЕН АЭС","name":"ХОЯТ","type":"РБМК","commonName":"ХОЯТ ЛЕН АЭС","unndOiaeCategoriesEntities":{"id":4,"name":"Пункты хранения ядерных материалов и радиоактивных веществ"},"hibernateLazyInitializer":{}},"fnpDoc":null,"processName":"INCONS_MANAGEMENT","processNameRu":null,"createdBy":null,"userTaskType":"INCONS_CREATE_LIST"},{"id":571,"procId":"3811e9e7-cf6e-4f24-99ef-f0c9e0592e33","assignee":1251,"assigneeRole":"NPP-EXPERT","beginDate":"2025-09-10T17:37:11.731312","endDate":null,"executionDate":"2025-09-12T22:00:00","name":"Оформление несоответствий","state":"COMPLETE","parentTaskId":569,"unndBlock":{"id":26,"unndPlant":{"id":8,"code":"ЛЕН","name":"Ленинградская АЭС","asutdCode":"BSP_LAES_ASUTD"},"code":"ЛЕН-1","name":"РБМК1000","type":"РБМК","commonName":"ЛЕН-1","unndOiaeCategoriesEntities":{"id":1,"name":"Ядерные установки"},"hibernateLazyInitializer":{}},"fnpDoc":null,"processName":"INCONS_MANAGEMENT","processNameRu":null,"createdBy":null,"userTaskType":"INCONS_CREATE_LIST"},{"id":120,"procId":"e43b9820-8a8b-4bb3-a7a8-fd1610468803","assignee":1807,"assigneeRole":null,"beginDate":"2025-08-21T20:34:47.334244","endDate":null,"executionDate":null,"name":"Оформление несоответствий","state":"COMPLETE","parentTaskId":119,"unndBlock":{"id":26,"unndPlant":{"id":8,"code":"ЛЕН","name":"Ленинградская АЭС","asutdCode":"BSP_LAES_ASUTD"},"code":"ЛЕН-1","name":"РБМК1000","type":"РБМК","commonName":"ЛЕН-1","unndOiaeCategoriesEntities":{"id":1,"name":"Ядерные установки"},"hibernateLazyInitializer":{}},"fnpDoc":null,"processName":"INCONS_MANAGEMENT","processNameRu":null,"createdBy":null,"userTaskType":"INCONS_CREATE_LIST"},{"id":678,"procId":"beccc536-5437-4690-a417-5e503a8d5277","assignee":1251,"assigneeRole":"NPP-EXPERT","beginDate":"2025-09-12T20:08:15.10128","endDate":null,"executionDate":"2025-09-14T22:00:00","name":"Оформление несоответствий","state":"COMPLETE","parentTaskId":677,"unndBlock":{"id":26,"unndPlant":{"id":8,"code":"ЛЕН","name":"Ленинградская АЭС","asutdCode":"BSP_LAES_ASUTD"},"code":"ЛЕН-1","name":"РБМК1000","type":"РБМК","commonName":"ЛЕН-1","unndOiaeCategoriesEntities":{"id":1,"name":"Ядерные установки"},"hibernateLazyInitializer":{}},"fnpDoc":null,"processName":"INCONS_MANAGEMENT","processNameRu":null,"createdBy":null,"userTaskType":"INCONS_CREATE_LIST"},{"id":172,"procId":"86d78e50-923b-485a-8d19-e0b6274d88a9","assignee":1807,"assigneeRole":null,"beginDate":"2025-08-22T18:56:56.108059","endDate":null,"executionDate":null,"name":"Оформление несоответствий","state":"COMPLETE","parentTaskId":171,"unndBlock":{"id":26,"unndPlant":{"id":8,"code":"ЛЕН","name":"Ленинградская АЭС","asutdCode":"BSP_LAES_ASUTD"},"code":"ЛЕН-1","name":"РБМК1000","type":"РБМК","commonName":"ЛЕН-1","unndOiaeCategoriesEntities":{"id":1,"name":"Ядерные установки"},"hibernateLazyInitializer":{}},"fnpDoc":null,"processName":"INCONS_MANAGEMENT","processNameRu":null,"createdBy":null,"userTaskType":"INCONS_CREATE_LIST"},{"id":155,"procId":"0cfb8f69-4630-4f7a-aadd-a60080051cd2","assignee":1251,"assigneeRole":null,"beginDate":"2025-08-22T16:22:58.581752","endDate":null,"executionDate":null,"name":"Оформление несоответствий","state":"COMPLETE","parentTaskId":154,"unndBlock":{"id":26,"unndPlant":{"id":8,"code":"ЛЕН","name":"Ленинградская АЭС","asutdCode":"BSP_LAES_ASUTD"},"code":"ЛЕН-1","name":"РБМК1000","type":"РБМК","commonName":"ЛЕН-1","unndOiaeCategoriesEntities":{"id":1,"name":"Ядерные установки"},"hibernateLazyInitializer":{}},"fnpDoc":null,"processName":"INCONS_MANAGEMENT","processNameRu":null,"createdBy":null,"userTaskType":"INCONS_CREATE_LIST"},{"id":187,"procId":"3e59b7fd-10da-4bf6-9868-dfd3001170b5","assignee":1807,"assigneeRole":null,"beginDate":"2025-08-23T16:07:43.529906","endDate":null,"executionDate":null,"name":"Оформление несоответствий","state":"COMPLETE","parentTaskId":186,"unndBlock":{"id":26,"unndPlant":{"id":8,"code":"ЛЕН","name":"Ленинградская АЭС","asutdCode":"BSP_LAES_ASUTD"},"code":"ЛЕН-1","name":"РБМК1000","type":"РБМК","commonName":"ЛЕН-1","unndOiaeCategoriesEntities":{"id":1,"name":"Ядерные установки"},"hibernateLazyInitializer":{}},"fnpDoc":null,"processName":"INCONS_MANAGEMENT","processNameRu":null,"createdBy":null,"userTaskType":"INCONS_CREATE_LIST"}],"pageable":{"sort":{"sorted":false,"empty":true,"unsorted":true},"pageNumber":0,"pageSize":20,"offset":0,"paged":true,"unpaged":false},"last":false,"totalPages":13,"totalElements":241,"size":20,"number":0,"sort":{"sorted":false,"empty":true,"unsorted":true},"first":true,"numberOfElements":20,"empty":false}