{"content":[{"id":1,"procId":"f5539ed0-7f06-411c-bec5-672554d48bce","assignee":725,"assigneeRole":null,"beginDate":"2025-07-25T17:14:29.323075","endDate":"2025-08-01T17:14:29.323082","executionDate":null,"name":"Назначение координатора ЦА","state":"NEW","parentTaskId":null,"unndBlock":null,"fnpDoc":null,"processName":null,"processNameRu":null,"createdBy":null,"userTaskType":"FNP_INCONS_ASSIGN_COORDINATOR_CA"},{"id":2,"procId":"0f5b6b8c-7346-49b3-b10b-b95f9371f2a6","assignee":725,"assigneeRole":null,"beginDate":"2025-07-25T17:25:45.192595","endDate":"2025-08-01T17:25:45.192601","executionDate":null,"name":"Назначение координатора ЦА","state":"NEW","parentTaskId":null,"unndBlock":null,"fnpDoc":null,"processName":null,"processNameRu":null,"createdBy":null,"userTaskType":"FNP_INCONS_ASSIGN_COORDINATOR_CA"},{"id":512,"procId":"d04ce1e8-d14a-4737-a975-a7870b1a11d8","assignee":1251,"assigneeRole":"HEAD-FGEOB-FNP","beginDate":"2025-09-08T14:00:29.850894","endDate":null,"executionDate":"2025-09-09T22:00:00","name":"Назначение координаторов АЭС","state":"COMPLETE","parentTaskId":507,"unndBlock":{"id":26,"unndPlant":{"id":8,"code":"ЛЕН","name":"Ленинградская АЭС","asutdCode":"BSP_LAES_ASUTD"},"code":"ЛЕН-1","name":"РБМК1000","type":"РБМК","commonName":"ЛЕН-1","unndOiaeCategoriesEntities":{"id":1,"name":"Ядерные установки"},"hibernateLazyInitializer":{}},"fnpDoc":null,"processName":"INCONS_MANAGEMENT","processNameRu":null,"createdBy":null,"userTaskType":"INCONS_ASSIGN_COORDINATOR_NPP"},{"id":502,"procId":"995d993a-a4e2-4f4b-82f7-084b4ae14bfa","assignee":1251,"assigneeRole":null,"beginDate":"2025-09-05T16:39:06.296462","endDate":"2025-09-07T16:39:06.296466","executionDate":null,"name":"Назначение координатора ЦА","state":"COMPLETE","parentTaskId":null,"unndBlock":null,"fnpDoc":null,"processName":"NEW_FNP","processNameRu":null,"createdBy":null,"userTaskType":"FNP_INCONS_ASSIGN_COORDINATOR_CA"},{"id":24,"procId":"33046145-b9b2-499b-9647-b863d59cb592","assignee":1251,"assigneeRole":null,"beginDate":"2025-08-18T21:40:32.910921","endDate":null,"executionDate":null,"name":"Оформление несоответствий","state":"COMPLETE","parentTaskId":23,"unndBlock":null,"fnpDoc":null,"processName":null,"processNameRu":null,"createdBy":null,"userTaskType":"INCONS_CREATE_LIST"},{"id":503,"procId":"995d993a-a4e2-4f4b-82f7-084b4ae14bfa","assignee":1251,"assigneeRole":null,"beginDate":"2025-09-05T18:36:37.963799","endDate":"2025-09-13T21:00:00","executionDate":null,"name":"Согласование размещения нового ФНП","state":"COMPLETE","parentTaskId":502,"unndBlock":null,"fnpDoc":null,"processName":"NEW_FNP","processNameRu":"Ру наименование задачи окда","createdBy":null,"userTaskType":"FNP_NEW_FNP_ACCEPTANCE"},{"id":504,"procId":"995d993a-a4e2-4f4b-82f7-084b4ae14bfa","assignee":1251,"assigneeRole":null,"beginDate":"2025-09-05T19:26:35.23289","endDate":null,"executionDate":null,"name":"Заполнение реестра «ОР ФНП»","state":"COMPLETE","parentTaskId":503,"unndBlock":null,"fnpDoc":null,"processName":"NEW_FNP","processNameRu":null,"createdBy":null,"userTaskType":"FNP_FILL_COVERED_REGIONS_FOR_FNP"},{"id":16,"procId":"33046145-b9b2-499b-9647-b863d59cb592","assignee":1251,"assigneeRole":"HEAD-FGEOB-FNP","beginDate":"2025-08-18T18:02:51.999631","endDate":"2025-08-21T18:02:51.999676","executionDate":null,"name":"Назначение руководителя ФГЭОБ АЭС","state":"COMPLETE","parentTaskId":null,"unndBlock":null,"fnpDoc":null,"processName":null,"processNameRu":null,"createdBy":"1763","userTaskType":"INCONS_ASSING_CHIEF_FGOB"},{"id":505,"procId":"2bc2c92d-9599-477c-b47f-73086a9d93a3","assignee":1831,"assigneeRole":"HEAD-FGEOB-FNP","beginDate":"2025-09-08T12:24:39.128598","endDate":null,"executionDate":"2025-09-10T22:00:00","name":"Назначение координаторов АЭС","state":"NEW","parentTaskId":487,"unndBlock":{"id":26,"unndPlant":{"id":8,"code":"ЛЕН","name":"Ленинградская АЭС","asutdCode":"BSP_LAES_ASUTD"},"code":"ЛЕН-1","name":"РБМК1000","type":"РБМК","commonName":"ЛЕН-1","unndOiaeCategoriesEntities":{"id":1,"name":"Ядерные установки"},"hibernateLazyInitializer":{}},"fnpDoc":null,"processName":"INCONS_MANAGEMENT","processNameRu":null,"createdBy":null,"userTaskType":"INCONS_ASSIGN_COORDINATOR_NPP"},{"id":517,"procId":"bd39faa9-efff-46f7-8842-74de8bb16bc1","assignee":1251,"assigneeRole":"NPP-EXPERT","beginDate":"2025-09-08T14:15:14.79728","endDate":null,"executionDate":"2025-09-10T22:00:00","name":"Оформление несоответствий","state":"COMPLETE","parentTaskId":515,"unndBlock":{"id":26,"unndPlant":{"id":8,"code":"ЛЕН","name":"Ленинградская АЭС","asutdCode":"BSP_LAES_ASUTD"},"code":"ЛЕН-1","name":"РБМК1000","type":"РБМК","commonName":"ЛЕН-1","unndOiaeCategoriesEntities":{"id":1,"name":"Ядерные установки"},"hibernateLazyInitializer":{}},"fnpDoc":null,"processName":"INCONS_MANAGEMENT","processNameRu":null,"createdBy":null,"userTaskType":"INCONS_CREATE_LIST"},{"id":508,"procId":"9dbff397-5d2d-4eb7-be71-4e079a4454d8","assignee":1251,"assigneeRole":"HEAD-FSS-NPP","beginDate":"2025-09-08T13:04:53.569958","endDate":"2025-09-11T13:04:53.569962","executionDate":null,"name":"Назначение руководителя ФГЭОБ АЭС","state":"COMPLETE","parentTaskId":null,"unndBlock":null,"fnpDoc":null,"processName":"INCONS_MANAGEMENT","processNameRu":null,"createdBy":null,"userTaskType":"INCONS_ASSING_CHIEF_FGOB"},{"id":21,"procId":"33046145-b9b2-499b-9647-b863d59cb592","assignee":1772,"assigneeRole":null,"beginDate":"2025-08-18T19:56:36.815187","endDate":"2025-08-21T21:00:00","executionDate":null,"name":"Назначение координаторов АЭС","state":"NEW","parentTaskId":16,"unndBlock":{"id":27,"unndPlant":{"id":8,"code":"ЛЕН","name":"Ленинградская АЭС","asutdCode":"BSP_LAES_ASUTD"},"code":"ЛЕН-2","name":"РБМК1000","type":"РБМК","commonName":"ЛЕН-2","unndOiaeCategoriesEntities":{"id":1,"name":"Ядерные установки"},"hibernateLazyInitializer":{}},"fnpDoc":null,"processName":null,"processNameRu":null,"createdBy":null,"userTaskType":"INCONS_ASSIGN_COORDINATOR_NPP"},{"id":510,"procId":"bd39faa9-efff-46f7-8842-74de8bb16bc1","assignee":1251,"assigneeRole":"HEAD-FSS-NPP","beginDate":"2025-09-08T13:09:41.319004","endDate":"2025-09-11T13:09:41.319009","executionDate":null,"name":"Назначение руководителя ФГЭОБ АЭС","state":"COMPLETE","parentTaskId":null,"unndBlock":null,"fnpDoc":null,"processName":"INCONS_MANAGEMENT","processNameRu":null,"createdBy":null,"userTaskType":"INCONS_ASSING_CHIEF_FGOB"},{"id":20,"procId":"33046145-b9b2-499b-9647-b863d59cb592","assignee":1251,"assigneeRole":null,"beginDate":"2025-08-18T19:56:36.804929","endDate":"2025-08-21T21:00:00","executionDate":null,"name":"Назначение координаторов АЭС","state":"COMPLETE","parentTaskId":16,"unndBlock":{"id":26,"unndPlant":{"id":8,"code":"ЛЕН","name":"Ленинградская АЭС","asutdCode":"BSP_LAES_ASUTD"},"code":"ЛЕН-1","name":"РБМК1000","type":"РБМК","commonName":"ЛЕН-1","unndOiaeCategoriesEntities":{"id":1,"name":"Ядерные установки"},"hibernateLazyInitializer":{}},"fnpDoc":null,"processName":null,"processNameRu":null,"createdBy":null,"userTaskType":"INCONS_ASSIGN_COORDINATOR_NPP"},{"id":22,"procId":"33046145-b9b2-499b-9647-b863d59cb592","assignee":1251,"assigneeRole":null,"beginDate":"2025-08-18T20:36:35.350582","endDate":"2025-08-21T21:00:00","executionDate":null,"name":"Назначение руководителей подразделений","state":"COMPLETE","parentTaskId":20,"unndBlock":null,"fnpDoc":null,"processName":null,"processNameRu":null,"createdBy":null,"userTaskType":"INCONS_ASSIGN_HEADS_OF_DEPARTMENTS"},{"id":23,"procId":"33046145-b9b2-499b-9647-b863d59cb592","assignee":1251,"assigneeRole":null,"beginDate":"2025-08-18T21:15:45.901948","endDate":"2025-08-22T21:00:00","executionDate":null,"name":"Назначение экспертов АЭС","state":"COMPLETE","parentTaskId":22,"unndBlock":null,"fnpDoc":null,"processName":null,"processNameRu":null,"createdBy":null,"userTaskType":"INCONS_ASSIGN_EXPERTS_NPP"},{"id":18,"procId":"757b4d92-61d9-4a0f-a56c-ef1e2e33f640","assignee":1772,"assigneeRole":null,"beginDate":"2025-08-18T22:14:29.323","endDate":"2025-08-19T22:14:29.323","executionDate":null,"name":"Назначение руководителей экспертов","state":"NEW","parentTaskId":17,"unndBlock":null,"fnpDoc":null,"processName":null,"processNameRu":null,"createdBy":null,"userTaskType":"INCONS_ASSIGN_EXPERTS_NPP"},{"id":3,"procId":"ddc9879e-c529-4d57-984f-d93d33f48cbe","assignee":1251,"assigneeRole":"SYSADM","beginDate":"2025-07-25T19:02:05.039255","endDate":"2025-08-01T19:02:05.03926","executionDate":null,"name":"Назначение координатора ЦА","state":"NEW","parentTaskId":null,"unndBlock":null,"fnpDoc":null,"processName":null,"processNameRu":null,"createdBy":null,"userTaskType":"FNP_INCONS_ASSIGN_COORDINATOR_CA"},{"id":19,"procId":"757b4d92-61d9-4a0f-a56c-ef1e2e33f640","assignee":1772,"assigneeRole":null,"beginDate":"2025-08-19T08:14:29.323","endDate":"2025-08-20T08:14:29.323","executionDate":null,"name":"Оформление несоответствий","state":"NEW","parentTaskId":18,"unndBlock":null,"fnpDoc":null,"processName":null,"processNameRu":null,"createdBy":null,"userTaskType":"INCONS_CREATE_LIST"},{"id":12,"procId":"9ea1bf44-5912-493b-8a01-5147225eedfc","assignee":1251,"assigneeRole":null,"beginDate":"2025-08-17T14:02:05.039","endDate":"2025-08-17T19:02:05.039","executionDate":"2025-08-18T14:02:05.039","name":"шаг1","state":"COMPLETE","parentTaskId":null,"unndBlock":null,"fnpDoc":{"id":247,"unndFedOrg":{"id":1,"name":"РТН"},"fnpStatus":{"id":4,"name":"Действующий"},"fnpFileId":1275,"poz":247,"code":"НП-023-20","name":"Требования к отчету по обоснованию безопасности судов и других плавсредств с ядерными реакторами","coord":null,"isAuto":null,"dtApprove":"2020-06-22T00:00:00.000+00:00","dtDef":"2023-01-30T06:44:56.865+00:00","dtCng":"2023-01-30T06:44:56.865+00:00","chainStart":null,"isActual":true,"processId":null,"spreadsToNpp":false,"kodeksDocId":null,"subdivisionsEntity":null,"blockEntity":[],"fnpCodexUrl":null,"hibernateLazyInitializer":{}},"processName":"NEW_FNP","processNameRu":null,"createdBy":null,"userTaskType":"FNP_INCONS_ASSIGN_COORDINATOR_CA"}],"pageable":{"sort":{"sorted":false,"empty":true,"unsorted":true},"pageNumber":0,"pageSize":20,"offset":0,"paged":true,"unpaged":false},"last":false,"totalPages":171,"totalElements":3411,"size":20,"number":0,"sort":{"sorted":false,"empty":true,"unsorted":true},"first":true,"numberOfElements":20,"empty":false}
